{
  "plugins": [
    {
      "name": "WordPress Plugin Repo",
      "slug": "plugin-repo",
      "short_descripion": "A plugin which provides a plugin repository for WordPress",
      "version": "{{version}}",
      "author": "Invisible Dragon Ltd",
      "last_updated": "{{date}}",
      "icons": {
        "svg": "{{domain}}/icon.svg"
      },
      "download_link": "{{domain}}/plugin.zip",
      "required": "5.7",
      "tested": "5.7"
    }
  ],
  "repo" : {
    "name": "WordPress Plugin Repo Host Updates",
    "auth": {
      "available": false
    },
    "url": "{{domain}}/repo.json"
  }
}